{
  "extensionName": {
    "message": "XNote++",
    "description": "Name of the extension."
  },

  "extensionDescription": {
    "message": "Add Post-It to your mails.",
    "description": "Description of the extension."
  },
  
  "preferences": { "message": "Preferencias"},
  "btn.browse": {"message": "Examinar..."},
  "btn.save" : {"message": "Save"},
  "btn.help" : {"message": "Info/Help"},
   "Window.defaults": {"message": "Xanela predeterminada"},
  "Width": {"message": "Largura"},
  "Height": {"message": "Altura"},
  "Window.defPosition" : {"message": "Posición predeterminada da xanela"},
  "Window.horPos" : {"message": "Horizontal"},
  "Window.vertPos" : {"message": "Vertical"},
  "storage.path": {"message": "Ruta de almacenamento"},
  "Message.tag": {"message": "Etiqueta de mensaxe"},
  "Name": {"message": "Nome"},
  "Color": {"message": "Cor"},
  "use.tag": {"message": "Usar etiqueta?"},
  "Behavior": {"message": "Comportamento"},
  "show.on.select": {"message": "Amosar nota ao selecionar a mensaxe"},
  "show.first.x.chars.in.col": {"message": "Amosar primeiros X caracteres na columna XNote"},
  "Select.storage.dir": {"message": "Selecione o cartafol de almacenamento para XNote."},
  "show.in.messageDisplay": {"message": "Show XNote summary in messsage display"},
  "show.full.in.messageDisplay": {"message": "Show full XNote in messsage display"},
  "show.show.column": {"message": "Show XNote in the 'size' column"}
  
}
